\relax 
\@writefile{toc}{\contentsline {section}{\numberline {1}目的}{1}}
\@writefile{toc}{\contentsline {section}{\numberline {2}原理}{1}}
\@writefile{toc}{\contentsline {subsection}{\numberline {2.1}X線とは}{1}}
\@writefile{toc}{\contentsline {subsection}{\numberline {2.2}結晶の形と対称性}{2}}
\@writefile{toc}{\contentsline {subsection}{\numberline {2.3}結晶周期と格子点}{2}}
\@writefile{toc}{\contentsline {subsection}{\numberline {2.4}晶系とブラベー格子}{2}}
\@writefile{toc}{\contentsline {subsection}{\numberline {2.5}ミラー指数}{3}}
\@writefile{toc}{\contentsline {subsection}{\numberline {2.6}結晶によるX線の回折}{3}}
\@writefile{toc}{\contentsline {subsection}{\numberline {2.7}電子による散乱}{3}}
\@writefile{toc}{\contentsline {subsection}{\numberline {2.8}結晶による回折}{3}}
\@writefile{toc}{\contentsline {section}{\numberline {3}実験方法}{4}}
\@writefile{toc}{\contentsline {section}{\numberline {4}結果}{4}}
\@writefile{toc}{\contentsline {subsection}{\numberline {4.1}Siについて}{4}}
\@writefile{lof}{\contentsline {figure}{\numberline {1}{\ignorespaces SiのX線回折パターン}}{4}}
\@writefile{lot}{\contentsline {table}{\numberline {1}{\ignorespaces Siの各値}}{4}}
\@writefile{toc}{\contentsline {subsection}{\numberline {4.2}NaClについて}{5}}
\@writefile{lof}{\contentsline {figure}{\numberline {2}{\ignorespaces NaClのX線回折パターン}}{5}}
\@writefile{lot}{\contentsline {table}{\numberline {2}{\ignorespaces NaClの各値}}{5}}
\@writefile{toc}{\contentsline {subsection}{\numberline {4.3}KClについて}{5}}
\@writefile{lof}{\contentsline {figure}{\numberline {3}{\ignorespaces KClのX線回折パターン}}{6}}
\@writefile{lot}{\contentsline {table}{\numberline {3}{\ignorespaces KClの各値}}{6}}
\@writefile{toc}{\contentsline {subsection}{\numberline {4.4}CsClについて}{6}}
\@writefile{lof}{\contentsline {figure}{\numberline {4}{\ignorespaces CsClのX線回折パターン}}{7}}
\@writefile{lot}{\contentsline {table}{\numberline {4}{\ignorespaces CsClの各値}}{7}}
\@writefile{toc}{\contentsline {subsection}{\numberline {4.5}ガラスについて}{7}}
\@writefile{lof}{\contentsline {figure}{\numberline {5}{\ignorespaces ガラスのX線回折パターン}}{8}}
\@writefile{toc}{\contentsline {section}{\numberline {5}考察}{8}}
\@writefile{toc}{\contentsline {section}{\numberline {6}課題}{9}}
\@writefile{toc}{\contentsline {subsection}{\numberline {6.1}共有結合とイオンの結合の違いについて}{9}}
\@writefile{toc}{\contentsline {subsection}{\numberline {6.2}結晶系と非結晶系の違いを述べよ}{9}}
\@writefile{toc}{\contentsline {subsection}{\numberline {6.3}立方晶の場合の指数面を図に描いて説明せよ}{9}}
\@writefile{lof}{\contentsline {figure}{\numberline {6}{\ignorespaces ミラー指数(2 0 1)の立方晶}}{9}}
\@writefile{lof}{\contentsline {figure}{\numberline {7}{\ignorespaces ミラー指数(1 0 1)の立方晶}}{10}}
\@writefile{lof}{\contentsline {figure}{\numberline {8}{\ignorespaces ミラー指数(2 2 0)の立方晶}}{10}}
\@writefile{lof}{\contentsline {figure}{\numberline {9}{\ignorespaces ミラー指数(0 3 2)の立方晶}}{10}}
\@writefile{toc}{\contentsline {subsection}{\numberline {6.4}NaClとCsClの回折パターンの違いについて論じよ}{11}}
\@writefile{toc}{\contentsline {section}{\numberline {7}参考文献}{11}}
